[gd_scene load_steps=3 format=2]

[ext_resource path="res://Interactables/Abs_Interactable/Abs_Interactable.tscn" type="PackedScene" id=1]
[ext_resource path="res://Interactables/Basic Interactables/Display_Image_Interactable.gd" type="Script" id=2]

[node name="Display_Image_Interactable" index="0" instance=ExtResource( 1 )]

script = ExtResource( 2 )
free_on_done = false
time_before_freeing = 5
image = null

[node name="Pointer" parent="." index="3"]

visible = false


