[gd_scene load_steps=5 format=2]

[ext_resource path="res://Interactables/Door Interactable/Zoned Door Interactable/Zoned Door_Interactable.tscn" type="PackedScene" id=1]
[ext_resource path="res://Interactables/Door Interactable/Locked Door Interactable/Locked Door_Interactable.gd" type="Script" id=2]
[ext_resource path="res://Interactables/Basic Interactables/Puzzle Interacter/Selection Puzzle Interacter.tscn" type="PackedScene" id=3]
[ext_resource path="res://Interactables/Basic Interactables/Generators/FromAnswer_Generator.gd" type="Script" id=4]

[node name="Locked Door_Interactable" index="0" instance=ExtResource( 1 )]

script = ExtResource( 2 )
calls_reactions = true

[node name="Door Body" parent="." index="3"]

editor/display_folded = true

[node name="Debug Text" parent="." index="4"]

text = "I Am A Locked Door
I Need A Pass Word"

[node name="Selection Puzzle Interacter" parent="." index="7" instance=ExtResource( 3 )]

[node name="Generator" type="Node" parent="Selection Puzzle Interacter" index="0"]

script = ExtResource( 4 )
possiblities = [ "S", "i", "m" ]
correct_answer = "Sim"


