[gd_scene load_steps=2 format=2]

[ext_resource path="res://Art/Outer Environment/Flower_2.png" type="Texture" id=1]


[node name="Flower_2" type="Sprite"]

position = Vector2( 2410.58, -531.822 )
scale = Vector2( 0.56938, 0.642004 )
texture = ExtResource( 1 )


