[gd_scene load_steps=2 format=2]

[ext_resource path="res://Art/Outer Environment/one rock.png" type="Texture" id=1]

[node name="Rock" type="StaticBody2D"]

position = Vector2( 1620, -160 )
input_pickable = false
collision_layer = 1
collision_mask = 1
constant_linear_velocity = Vector2( 0, 0 )
constant_angular_velocity = 0.0
friction = 1.0
bounce = 0.0
__meta__ = {
"_edit_group_": true
}

[node name="one rock" type="Sprite" parent="." index="0"]

texture = ExtResource( 1 )
_sections_unfolded = [ "Transform" ]

[node name="CollisionPolygon2D" type="CollisionPolygon2D" parent="." index="1"]

build_mode = 0
polygon = PoolVector2Array( 20, -20, 40, 0, 30, 10, 0, 20, -40, 10, -40, -10, 0, -20 )


